^D:\GITHUBPROJECT\GAME\ALADDINGAME\PUGIXML\SRC\PUGIXML.CPP
/c /Z7 /nologo /W3 /WX- /O2 /Oi /Oy- /GL /D WIN32 /D NDEBUG /D _LIB /D _UNICODE /D UNICODE /Gm- /EHsc /MD /GS /Gy /fp:precise /Zc:wchar_t /Zc:forScope /Zc:inline /Fo"VS2015\WIN32_RELEASE\\" /Fd"VS2015\WIN32_RELEASE\PUGIXML.PDB" /Gd /TP /analyze- D:\GITHUBPROJECT\GAME\ALADDINGAME\PUGIXML\SRC\PUGIXML.CPP
^C:\USERS\CYBER\ONEDRIVE\PROJECT\GAME\ALADDINGAME\PUGIXML\SRC\PUGIXML.CPP
/c /Z7 /nologo /W3 /WX- /O2 /Oi /Oy- /GL /D WIN32 /D NDEBUG /D _LIB /D _UNICODE /D UNICODE /Gm- /EHsc /MD /GS /Gy /fp:precise /Zc:wchar_t /Zc:forScope /Zc:inline /Fo"VS2015\WIN32_RELEASE\\" /Fd"VS2015\WIN32_RELEASE\PUGIXML.PDB" /Gd /TP /analyze- C:\USERS\CYBER\ONEDRIVE\PROJECT\GAME\ALADDINGAME\PUGIXML\SRC\PUGIXML.CPP
