^D:\GITHUBPROJECT\GAME\ALADDINGAME\PUGIXML\SCRIPTS\VS2015\WIN32_DEBUG\PUGIXML.OBJ
D:\GITHUBPROJECT\GAME\ALADDINGAME\PUGIXML\SCRIPTS\VS2015\WIN32_DEBUG\PUGIXML.LIB
^C:\USERS\CYBER\ONEDRIVE\DOCUMENTS\VISUAL STUDIO 2015\PROJECTS\CONSOLEAPPLICATION2\PUGIXML\SCRIPTS\VS2015\WIN32_DEBUG\PUGIXML.OBJ
C:\USERS\CYBER\ONEDRIVE\DOCUMENTS\VISUAL STUDIO 2015\PROJECTS\CONSOLEAPPLICATION2\PUGIXML\SCRIPTS\VS2015\WIN32_DEBUG\PUGIXML.LIB
