^C:\USERS\MOJATA\DESKTOP\NMGAME\ALADDINGAME\PUGIXML\SCRIPTS\VS2015\WIN32_DEBUG\PUGIXML.OBJ
/OUT:"VS2015\WIN32_DEBUG\PUGIXML.LIB" /NOLOGO VS2015\WIN32_DEBUG\PUGIXML.OBJ
^C:\USERS\CYBER\ONEDRIVE\PROJECT\GAME\ALADDINGAME\PUGIXML\SCRIPTS\VS2015\WIN32_DEBUG\PUGIXML.OBJ
/OUT:"VS2015\WIN32_DEBUG\PUGIXML.LIB" /NOLOGO VS2015\WIN32_DEBUG\PUGIXML.OBJ
^D:\ALADDIN_GAMEPROJECT\BITBUCKET\ALADDINGAME\PUGIXML\SCRIPTS\VS2015\WIN32_DEBUG\PUGIXML.OBJ
/OUT:"VS2015\WIN32_DEBUG\PUGIXML.LIB" /NOLOGO VS2015\WIN32_DEBUG\PUGIXML.OBJ
^D:\ALADDIN_GAMEPROJECT\FINAL\ALADDINGAME\PUGIXML\SCRIPTS\VS2015\WIN32_DEBUG\PUGIXML.OBJ
/OUT:"VS2015\WIN32_DEBUG\PUGIXML.LIB" /NOLOGO VS2015\WIN32_DEBUG\PUGIXML.OBJ
